Marketing Mix Modeling
…
We have all the variables to be used in the model, except the first lagged traffic variable in logarithm, \(lnTraffic_{t-1}\)*. The code chunk below creates this variable.

Code

#Creating Lagged Traffic Variable 
m <- 1   # one lag 

#number of observations
n <- length(data$traffic)

#Build Lag
data$L1.lntraffic <- c(rep(NA,m), data$lntraffic[1:(n-m)]) # --> c(NA, lntraffic[1:56])
data

# A tibble: 57 × 14
   week_beg   google_adwords facebook    tv    radio traffic sum_online
   <date>              <dbl>    <dbl> <dbl>    <dbl>   <dbl>      <dbl>
 1 2020-07-06         94017.    82950     0       0  6719812    176967.
 2 2020-07-13         93634.    66150     0       0  6186229    159784.
 3 2020-07-20        112239.    94650     0       0  6790416    206889.
 4 2020-07-27        121250.    96450     0       0  7146957    217700.
 5 2020-08-03        130471.   114600     0       0  7815741    245071.
 6 2020-08-10        131955.   119550     0       0  8444791    251505.
 7 2020-08-17        129812    106350     0       0  8267982    236162 
 8 2020-08-24        110177.   116550     0       0  7059093    226727.
 9 2020-08-31         97206     90150     0 1298507. 6137780    187356 
10 2020-09-07        107410     82650     0       0  6356676    190060 
# ℹ 47 more rows
# ℹ 7 more variables: sum_offline <dbl>, lngoogle_adwords <dbl>,
#   lnfacebook <dbl>, lntv <dbl>, lnradio <dbl>, lntraffic <dbl>,
#   L1.lntraffic <dbl>
…
